mult_64bit_vedic.sim/sim_1/behav/xsim/simulate.log
Time resolution is 1 ps
                   0A = 0000000000000000, B = 0000000000000000, Cin = 0, Cout = 0, Sum = 0000000000000000
                   1A = 0000000000000000, B = 0000000000000000, Cin = 1, Cout = 0, Sum = 0000000000000001
                   2A = 0000000000000000, B = 0000000000000001, Cin = 0, Cout = 0, Sum = 0000000000000001
                   3A = 0000000000000000, B = 0000000000000001, Cin = 1, Cout = 0, Sum = 0000000000000010
                   4A = 0000000000000001, B = 0000000000000010, Cin = 0, Cout = 0, Sum = 0000000000000011
                   5A = 0000000000000001, B = 0000000000000010, Cin = 1, Cout = 0, Sum = 0000000000000100
                   6A = 0000000000000001, B = 0000000000000011, Cin = 0, Cout = 0, Sum = 0000000000000100
                   7A = 0000000000000001, B = 0000000000000011, Cin = 1, Cout = 0, Sum = 0000000000000101
                   8A = 0000000000000010, B = 0000000000000100, Cin = 0, Cout = 0, Sum = 0000000000000110
                   9A = 0000000000000010, B = 0000000000000100, Cin = 1, Cout = 0, Sum = 0000000000000111
                  10A = 0000000000000010, B = 0000000000000101, Cin = 0, Cout = 0, Sum = 0000000000000111
                  11A = 0000000000000010, B = 0000000000000101, Cin = 1, Cout = 0, Sum = 0000000000001000
                  12A = 0000000000000011, B = 0000000000000110, Cin = 0, Cout = 0, Sum = 0000000000001001
                  13A = 0000000000000011, B = 0000000000000110, Cin = 1, Cout = 0, Sum = 0000000000001010
                  14A = 0000000000000011, B = 0000000000000111, Cin = 0, Cout = 0, Sum = 0000000000001010
                  15A = 0000000000000011, B = 0000000000000111, Cin = 1, Cout = 0, Sum = 0000000000001011
                  16A = 0000000000000100, B = 0000000000001000, Cin = 0, Cout = 0, Sum = 0000000000001100
                  17A = 0000000000000100, B = 0000000000001000, Cin = 1, Cout = 0, Sum = 0000000000001101
                  18A = 0000000000000100, B = 0000000000001001, Cin = 0, Cout = 0, Sum = 0000000000001101
                  19A = 0000000000000100, B = 0000000000001001, Cin = 1, Cout = 0, Sum = 0000000000001110
                  20A = 0000000000000101, B = 0000000000001010, Cin = 0, Cout = 0, Sum = 0000000000001111
                  21A = 0000000000000101, B = 0000000000001010, Cin = 1, Cout = 0, Sum = 0000000000010000
                  22A = 0000000000000101, B = 0000000000001011, Cin = 0, Cout = 0, Sum = 0000000000010000
                  23A = 0000000000000101, B = 0000000000001011, Cin = 1, Cout = 0, Sum = 0000000000010001
                  24A = 0000000000000110, B = 0000000000001100, Cin = 0, Cout = 0, Sum = 0000000000010010
                  25A = 0000000000000110, B = 0000000000001100, Cin = 1, Cout = 0, Sum = 0000000000010011
                  26A = 0000000000000110, B = 0000000000001101, Cin = 0, Cout = 0, Sum = 0000000000010011
                  27A = 0000000000000110, B = 0000000000001101, Cin = 1, Cout = 0, Sum = 0000000000010100
                  28A = 0000000000000111, B = 0000000000001110, Cin = 0, Cout = 0, Sum = 0000000000010101
                  29A = 0000000000000111, B = 0000000000001110, Cin = 1, Cout = 0, Sum = 0000000000010110
                  30A = 0000000000000111, B = 0000000000001111, Cin = 0, Cout = 0, Sum = 0000000000010110
                  31A = 0000000000000111, B = 0000000000001111, Cin = 1, Cout = 0, Sum = 0000000000010111
                  32A = 0000000000001000, B = 0000000000010000, Cin = 0, Cout = 0, Sum = 0000000000011000
                  33A = 0000000000001000, B = 0000000000010000, Cin = 1, Cout = 0, Sum = 0000000000011001
                  34A = 0000000000001000, B = 0000000000010001, Cin = 0, Cout = 0, Sum = 0000000000011001
                  35A = 0000000000001000, B = 0000000000010001, Cin = 1, Cout = 0, Sum = 0000000000011010
                  36A = 0000000000001001, B = 0000000000010010, Cin = 0, Cout = 0, Sum = 0000000000011011
                  37A = 0000000000001001, B = 0000000000010010, Cin = 1, Cout = 0, Sum = 0000000000011100
                  38A = 0000000000001001, B = 0000000000010011, Cin = 0, Cout = 0, Sum = 0000000000011100
                  39A = 0000000000001001, B = 0000000000010011, Cin = 1, Cout = 0, Sum = 0000000000011101
                  40A = 0000000000001010, B = 0000000000010100, Cin = 0, Cout = 0, Sum = 0000000000011110
                  41A = 0000000000001010, B = 0000000000010100, Cin = 1, Cout = 0, Sum = 0000000000011111
                  42A = 0000000000001010, B = 0000000000010101, Cin = 0, Cout = 0, Sum = 0000000000011111
                  43A = 0000000000001010, B = 0000000000010101, Cin = 1, Cout = 0, Sum = 0000000000100000
                  44A = 0000000000001011, B = 0000000000010110, Cin = 0, Cout = 0, Sum = 0000000000100001
                  45A = 0000000000001011, B = 0000000000010110, Cin = 1, Cout = 0, Sum = 0000000000100010
                  46A = 0000000000001011, B = 0000000000010111, Cin = 0, Cout = 0, Sum = 0000000000100010
                  47A = 0000000000001011, B = 0000000000010111, Cin = 1, Cout = 0, Sum = 0000000000100011
                  48A = 0000000000001100, B = 0000000000011000, Cin = 0, Cout = 0, Sum = 0000000000100100
                  49A = 0000000000001100, B = 0000000000011000, Cin = 1, Cout = 0, Sum = 0000000000100101
                  50A = 0000000000001100, B = 0000000000011001, Cin = 0, Cout = 0, Sum = 0000000000100101
                  51A = 0000000000001100, B = 0000000000011001, Cin = 1, Cout = 0, Sum = 0000000000100110
                  52A = 0000000000001101, B = 0000000000011010, Cin = 0, Cout = 0, Sum = 0000000000100111
                  53A = 0000000000001101, B = 0000000000011010, Cin = 1, Cout = 0, Sum = 0000000000101000
                  54A = 0000000000001101, B = 0000000000011011, Cin = 0, Cout = 0, Sum = 0000000000101000
                  55A = 0000000000001101, B = 0000000000011011, Cin = 1, Cout = 0, Sum = 0000000000101001
                  56A = 0000000000001110, B = 0000000000011100, Cin = 0, Cout = 0, Sum = 0000000000101010
                  57A = 0000000000001110, B = 0000000000011100, Cin = 1, Cout = 0, Sum = 0000000000101011
                  58A = 0000000000001110, B = 0000000000011101, Cin = 0, Cout = 0, Sum = 0000000000101011
                  59A = 0000000000001110, B = 0000000000011101, Cin = 1, Cout = 0, Sum = 0000000000101100
                  60A = 0000000000001111, B = 0000000000011110, Cin = 0, Cout = 0, Sum = 0000000000101101
                  61A = 0000000000001111, B = 0000000000011110, Cin = 1, Cout = 0, Sum = 0000000000101110
                  62A = 0000000000001111, B = 0000000000011111, Cin = 0, Cout = 0, Sum = 0000000000101110
                  63A = 0000000000001111, B = 0000000000011111, Cin = 1, Cout = 0, Sum = 0000000000101111
                  64A = 0000000000010000, B = 0000000000100000, Cin = 0, Cout = 0, Sum = 0000000000110000
                  65A = 0000000000010000, B = 0000000000100000, Cin = 1, Cout = 0, Sum = 0000000000110001
                  66A = 0000000000010000, B = 0000000000100001, Cin = 0, Cout = 0, Sum = 0000000000110001
                  67A = 0000000000010000, B = 0000000000100001, Cin = 1, Cout = 0, Sum = 0000000000110010
                  68A = 0000000000010001, B = 0000000000100010, Cin = 0, Cout = 0, Sum = 0000000000110011
                  69A = 0000000000010001, B = 0000000000100010, Cin = 1, Cout = 0, Sum = 0000000000110100
                  70A = 0000000000010001, B = 0000000000100011, Cin = 0, Cout = 0, Sum = 0000000000110100
                  71A = 0000000000010001, B = 0000000000100011, Cin = 1, Cout = 0, Sum = 0000000000110101
                  72A = 0000000000010010, B = 0000000000100100, Cin = 0, Cout = 0, Sum = 0000000000110110
                  73A = 0000000000010010, B = 0000000000100100, Cin = 1, Cout = 0, Sum = 0000000000110111
                  74A = 0000000000010010, B = 0000000000100101, Cin = 0, Cout = 0, Sum = 0000000000110111
                  75A = 0000000000010010, B = 0000000000100101, Cin = 1, Cout = 0, Sum = 0000000000111000
                  76A = 0000000000010011, B = 0000000000100110, Cin = 0, Cout = 0, Sum = 0000000000111001
      